P2/intel.vcd
$date
	Tue Mar  5 19:02:39 2013
$end
$version
	Icarus Verilog
$end
$timescale
	10ps
$end
$scope module procesador_tb $end
$var wire 1 ! t_fin $end
$var wire 3 " t_op [2:0] $end
$var wire 6 # t_opcode [5:0] $end
$var wire 1 $ t_s_inc $end
$var wire 1 % t_s_inc2 $end
$var wire 1 & t_s_inm $end
$var wire 1 ' t_we3 $end
$var wire 1 ( t_z $end
$var reg 1 ) t_clk $end
$var reg 1 * t_reset $end
$scope module intel $end
$var wire 1 + clk $end
$var wire 1 ! fin $end
$var wire 3 , op [2:0] $end
$var wire 6 - opcode [5:0] $end
$var wire 1 . reset $end
$var wire 1 $ s_inc $end
$var wire 1 % s_inc2 $end
$var wire 1 & s_inm $end
$var wire 1 ' we3 $end
$var wire 1 ( z $end
$scope module uc_ $end
$var wire 1 + clk $end
$var wire 6 / opcode [5:0] $end
$var wire 1 . reset $end
$var wire 1 ( z $end
$var reg 1 0 fin $end
$var reg 3 1 op [2:0] $end
$var reg 1 2 s_inc $end
$var reg 1 3 s_inc2 $end
$var reg 1 4 s_inm $end
$var reg 1 5 we3 $end
$upscope $end
$scope module microc_ $end
$var wire 1 + clk $end
$var wire 10 6 ePC [9:0] $end
$var wire 3 7 op [2:0] $end
$var wire 6 8 opcode [5:0] $end
$var wire 1 . reset $end
$var wire 10 9 sM3 [9:0] $end
$var wire 10 : sPC [9:0] $end
$var wire 1 $ s_inc $end
$var wire 1 % s_inc2 $end
$var wire 1 & s_inm $end
$var wire 8 ; salu [7:0] $end
$var wire 16 < smem [15:0] $end
$var wire 8 = srd1 [7:0] $end
$var wire 8 > srd2 [7:0] $end
$var wire 10 ? ssum [9:0] $end
$var wire 8 @ wd3 [7:0] $end
$var wire 1 ' we3 $end
$var wire 1 ( z $end
$var wire 1 A z_salu $end
$scope module PC $end
$var wire 1 + clk $end
$var wire 10 B d [9:0] $end
$var wire 1 . reset $end
$var reg 10 C q [9:0] $end
$upscope $end
$scope module mem_ $end
$var wire 10 D a [9:0] $end
$var wire 1 + clk $end
$var wire 16 E rd [15:0] $end
$upscope $end
$scope module banco $end
$var wire 1 + clk $end
$var wire 4 F ra1 [3:0] $end
$var wire 4 G ra2 [3:0] $end
$var wire 8 H rd1 [7:0] $end
$var wire 8 I rd2 [7:0] $end
$var wire 4 J wa3 [3:0] $end
$var wire 8 K wd3 [7:0] $end
$var wire 1 ' we3 $end
$upscope $end
$scope module alu_ $end
$var wire 8 L a [7:0] $end
$var wire 8 M b [7:0] $end
$var wire 3 N op [2:0] $end
$var wire 8 O y [7:0] $end
$var wire 1 A zero $end
$var reg 8 P s [7:0] $end
$upscope $end
$scope module ffp $end
$var wire 1 + clk $end
$var wire 1 A d $end
$var reg 1 Q q $end
$upscope $end
$scope module sumador $end
$var wire 10 R a [9:0] $end
$var wire 10 S b [9:0] $end
$var wire 10 T y [9:0] $end
$upscope $end
$scope module mux2_1 $end
$var wire 10 U d0 [9:0] $end
$var wire 10 V d1 [9:0] $end
$var wire 1 $ s $end
$var wire 10 W y [9:0] $end
$upscope $end
$scope module mux2_2 $end
$var wire 8 X d0 [7:0] $end
$var wire 8 Y d1 [7:0] $end
$var wire 1 & s $end
$var wire 8 Z y [7:0] $end
$upscope $end
$scope module mux2_3 $end
$var wire 10 [ d0 [9:0] $end
$var wire 10 \ d1 [9:0] $end
$var wire 1 % s $end
$var wire 10 ] y [9:0] $end
$upscope $end
$upscope $end
$upscope $end
$upscope $end
$enddefinitions $end
#0
$dumpvars
b1 ]
b0 \
b1 [
b0 Z
b0 Y
bx X
b1 W
b1 V
b0 U
b1 T
b1 S
b0 R
0Q
bx P
bx O
bx N
b0 M
b0 L
b0 K
b0 J
b0 I
b0 H
b0 G
b0 F
b1000 E
b0 D
b0 C
b1 B
xA
b0 @
b1 ?
b0 >
b0 =
b1000 <
bx ;
b0 :
b1 9
b1000 8
bx 7
b1 6
15
14
03
12
bx 1
x0
b1000 /
1.
b1000 -
bx ,
1+
1*
1)
0(
1'
1&
0%
1$
b1000 #
bx "
x!
$end
#500
0*
0.
0)
0+
#1000
b1 @
b1 K
b1 Z
bx =
bx H
bx L
b11000 #
b11000 -
b11000 /
b11000 8
b1000000 \
b1 Y
b1000000 U
b1 J
b1 F
b10 6
b10 B
b10 W
b1 C
b1000000011000 <
b1000000011000 E
b10 ?
b10 T
b10 V
b1 :
b1 D
b1 R
1)
1+
#1500
0)
0+
#2000
b101 @
b101 K
b101 Z
b10000001 \
b101 Y
b10000001 U
b10 J
b101 F
b11 6
b11 B
b11 W
b10 C
b10000001011000 <
b10000001011000 E
b11 ?
b11 T
b11 V
b10 :
b10 D
b10 R
1)
1+
#2500
0)
0+
#3000
04
0&
0A
b100 P
b100 ;
b100 O
b100 X
b11 1
b11 "
b11 ,
b11 7
b11 N
b100 @
b100 K
b100 Z
b1 >
b1 I
b1 M
b101 =
b101 H
b101 L
b100011 #
b100011 -
b100011 /
b100011 8
b10000100 \
b10010 Y
b10000100 U
b1 G
b10 F
b100 6
b100 B
b100 W
b11 C
b10000100100011 <
b10000100100011 E
b100 ?
b100 T
b100 V
b11 :
b11 D
b11 R
1)
1+
#3500
0)
0+
#4000
05
0'
xA
bx @
bx K
bx Z
bx P
bx ;
bx O
bx X
bx =
bx H
bx L
b1010 #
b1010 -
b1010 /
b1010 8
b110 \
b11000 Y
b110 U
b0 J
b1000 F
b101 6
b101 B
b101 W
b100 C
b110001010 <
b110001010 E
b101 ?
b101 T
b101 V
b100 :
b100 D
b100 R
1)
1+
#4500
0)
0+
#5000
02
0$
b0 >
b0 I
b0 M
b1001 #
b1001 -
b1001 /
b1001 8
b11 \
b1100 Y
b11 U
b0 G
b1100 F
b11 6
b11 B
b11 W
b101 C
b11001001 <
b11001001 E
b110 ?
b110 T
b110 V
b101 :
b101 D
b101 R
1)
1+
#5500
0)
0+
#6000
12
1$
15
1'
0A
b11 @
b11 K
b11 Z
b11 P
b11 ;
b11 O
b11 X
b100 6
b100 B
b100 W
b1 >
b1 I
b1 M
b100 =
b100 H
b100 L
b100011 #
b100011 -
b100011 /
b100011 8
b10000100 \
b10010 Y
b10000100 U
b10 J
b1 G
b10 F
b11 C
b10000100100011 <
b10000100100011 E
b100 ?
b100 T
b100 V
b11 :
b11 D
b11 R
1)
1+
#6500
0)
0+
#7000
05
0'
xA
bx @
bx K
bx Z
bx P
bx ;
bx O
bx X
bx =
bx H
bx L
b1010 #
b1010 -
b1010 /
b1010 8
b110 \
b11000 Y
b110 U
b0 J
b1000 F
b101 6
b101 B
b101 W
b100 C
b110001010 <
b110001010 E
b101 ?
b101 T
b101 V
b100 :
b100 D
b100 R
1)
1+
#7500
0)
0+
#8000
02
0$
b0 >
b0 I
b0 M
b1001 #
b1001 -
b1001 /
b1001 8
b11 \
b1100 Y
b11 U
b0 G
b1100 F
b11 6
b11 B
b11 W
b101 C
b11001001 <
b11001001 E
b110 ?
b110 T
b110 V
b101 :
b101 D
b101 R
1)
1+
#8500
0)
0+
#9000
12
1$
15
1'
0A
b10 @
b10 K
b10 Z
b10 P
b10 ;
b10 O
b10 X
b100 6
b100 B
b100 W
b1 >
b1 I
b1 M
b11 =
b11 H
b11 L
b100011 #
b100011 -
b100011 /
b100011 8
b10000100 \
b10010 Y
b10000100 U
b10 J
b1 G
b10 F
b11 C
b10000100100011 <
b10000100100011 E
b100 ?
b100 T
b100 V
b11 :
b11 D
b11 R
1)
1+
#9500
0)
0+
#10000
05
0'
xA
bx @
bx K
bx Z
bx P
bx ;
bx O
bx X
bx =
bx H
bx L
b1010 #
b1010 -
b1010 /
b1010 8
b110 \
b11000 Y
b110 U
b0 J
b1000 F
b101 6
b101 B
b101 W
b100 C
b110001010 <
b110001010 E
b101 ?
b101 T
b101 V
b100 :
b100 D
b100 R
1)
1+
#10500
0)
0+
#11000
02
0$
b0 >
b0 I
b0 M
b1001 #
b1001 -
b1001 /
b1001 8
b11 \
b1100 Y
b11 U
b0 G
b1100 F
b11 6
b11 B
b11 W
b101 C
b11001001 <
b11001001 E
b110 ?
b110 T
b110 V
b101 :
b101 D
b101 R
1)
1+
#11500
0)
0+
#12000
12
1$
15
1'
0A
b1 @
b1 K
b1 Z
b1 P
b1 ;
b1 O
b1 X
b100 6
b100 B
b100 W
b1 >
b1 I
b1 M
b10 =
b10 H
b10 L
b100011 #
b100011 -
b100011 /
b100011 8
b10000100 \
b10010 Y
b10000100 U
b10 J
b1 G
b10 F
b11 C
b10000100100011 <
b10000100100011 E
b100 ?
b100 T
b100 V
b11 :
b11 D
b11 R
1)
1+
#12500
0)
0+
#13000
05
0'
xA
bx @
bx K
bx Z
bx P
bx ;
bx O
bx X
bx =
bx H
bx L
b1010 #
b1010 -
b1010 /
b1010 8
b110 \
b11000 Y
b110 U
b0 J
b1000 F
b101 6
b101 B
b101 W
b100 C
b110001010 <
b110001010 E
b101 ?
b101 T
b101 V
b100 :
b100 D
b100 R
1)
1+
#13500
0)
0+
#14000
02
0$
b0 >
b0 I
b0 M
b1001 #
b1001 -
b1001 /
b1001 8
b11 \
b1100 Y
b11 U
b0 G
b1100 F
b11 6
b11 B
b11 W
b101 C
b11001001 <
b11001001 E
b110 ?
b110 T
b110 V
b101 :
b101 D
b101 R
1)
1+
#14500
0)
0+
#15000
12
1$
15
1'
1A
b0 @
b0 K
b0 Z
b0 P
b0 ;
b0 O
b0 X
b100 6
b100 B
b100 W
b1 >
b1 I
b1 M
b1 =
b1 H
b1 L
b100011 #
b100011 -
b100011 /
b100011 8
b10000100 \
b10010 Y
b10000100 U
b10 J
b1 G
b10 F
b11 C
b10000100100011 <
b10000100100011 E
b100 ?
b100 T
b100 V
b11 :
b11 D
b11 R
1)
1+
#15500
0)
0+
#16000
02
0$
05
0'
xA
bx @
bx K
bx Z
bx P
bx ;
bx O
bx X
bx =
bx H
bx L
b1010 #
b1010 -
b1010 /
b1010 8
b110 \
b11000 Y
b110 U
b0 J
b1000 F
b110 6
b110 B
b110 W
1Q
1(
b100 C
b110001010 <
b110001010 E
b101 ?
b101 T
b101 V
b100 :
b100 D
b100 R
1)
1+
#16500
0)
0+
#17000
b10 9
b10 S
b10 ]
13
1%
12
1$
b1000 6
b1000 B
b1000 W
b0 >
b0 I
b0 M
b1100 #
b1100 -
b1100 /
b1100 8
b10 \
b1000 Y
b10 U
b0 G
0Q
0(
b110 C
b10001100 <
b10001100 E
b1000 ?
b1000 T
b1000 V
b110 :
b110 D
b110 R
1)
1+
#17500
0)
0+
#18000
b101 @
b101 K
b101 Z
15
1'
14
1&
03
0%
b1 9
b1 S
b1 ]
b11000 #
b11000 -
b11000 /
b11000 8
b10000001 \
b101 Y
b10000001 U
b10 J
b101 F
b1001 6
b1001 B
b1001 W
b1000 C
b10000001011000 <
b10000001011000 E
b1001 ?
b1001 T
b1001 V
b1000 :
b1000 D
b1000 R
1)
1+
#18500
0)
0+
#19000
04
0&
bx 1
bx "
bx ,
bx 7
bx N
bx @
bx K
bx Z
bx >
bx I
bx M
bx #
bx -
bx /
bx 8
bx \
bx Y
bx U
bx J
bx G
bx F
b1010 6
b1010 B
b1010 W
b1001 C
bx <
bx E
b1010 ?
b1010 T
b1010 V
b1001 :
b1001 D
b1001 R
1)
1+
#19500
0)
0+
#20000
b1011 6
b1011 B
b1011 W
b1010 C
b1011 ?
b1011 T
b1011 V
b1010 :
b1010 D
b1010 R
1)
1+
#20500
0)
0+
#21000
b1100 6
b1100 B
b1100 W
b1011 C
b1100 ?
b1100 T
b1100 V
b1011 :
b1011 D
b1011 R
1)
1+
#21500
0)
0+
#22000
b1101 6
b1101 B
b1101 W
b1100 C
b1101 ?
b1101 T
b1101 V
b1100 :
b1100 D
b1100 R
1)
1+
#22500
0)
0+
#23000
b1110 6
b1110 B
b1110 W
b1101 C
b1110 ?
b1110 T
b1110 V
b1101 :
b1101 D
b1101 R
1)
1+
#23500
0)
0+
#24000
b1111 6
b1111 B
b1111 W
b1110 C
b1111 ?
b1111 T
b1111 V
b1110 :
b1110 D
b1110 R
1)
1+
#24500
0)
0+
#25000
b10000 6
b10000 B
b10000 W
b1111 C
b10000 ?
b10000 T
b10000 V
b1111 :
b1111 D
b1111 R
1)
1+
#25500
0)
0+
#26000
b10001 6
b10001 B
b10001 W
b10000 C
b10001 ?
b10001 T
b10001 V
b10000 :
b10000 D
b10000 R
1)
1+
#26500
0)
0+
#27000
b10010 6
b10010 B
b10010 W
b10001 C
b10010 ?
b10010 T
b10010 V
b10001 :
b10001 D
b10001 R
1)
1+
#27500
0)
0+
#28000
b10011 6
b10011 B
b10011 W
b10010 C
b10011 ?
b10011 T
b10011 V
b10010 :
b10010 D
b10010 R
1)
1+
#28500
0)
0+
#29000
b10100 6
b10100 B
b10100 W
b10011 C
b10100 ?
b10100 T
b10100 V
b10011 :
b10011 D
b10011 R
1)
1+
#29500
0)
0+
#30000
b10101 6
b10101 B
b10101 W
b10100 C
b10101 ?
b10101 T
b10101 V
b10100 :
b10100 D
b10100 R
1)
1+
#30500
0)
0+
#31000
b10110 6
b10110 B
b10110 W
b10101 C
b10110 ?
b10110 T
b10110 V
b10101 :
b10101 D
b10101 R
1)
1+
#31500
0)
0+
#32000
b10111 6
b10111 B
b10111 W
b10110 C
b10111 ?
b10111 T
b10111 V
b10110 :
b10110 D
b10110 R
1)
1+
#32500
0)
0+
#33000
b11000 6
b11000 B
b11000 W
b10111 C
b11000 ?
b11000 T
b11000 V
b10111 :
b10111 D
b10111 R
1)
1+
#33500
0)
0+
#34000
b11001 6
b11001 B
b11001 W
b11000 C
b11001 ?
b11001 T
b11001 V
b11000 :
b11000 D
b11000 R
1)
1+
#34500
0)
0+
#35000
b11010 6
b11010 B
b11010 W
b11001 C
b11010 ?
b11010 T
b11010 V
b11001 :
b11001 D
b11001 R
1)
1+
#35500
0)
0+
#36000
b11011 6
b11011 B
b11011 W
b11010 C
b11011 ?
b11011 T
b11011 V
b11010 :
b11010 D
b11010 R
1)
1+
#36500
0)
0+
#37000
b11100 6
b11100 B
b11100 W
b11011 C
b11100 ?
b11100 T
b11100 V
b11011 :
b11011 D
b11011 R
1)
1+
#37500
0)
0+
#38000
b11101 6
b11101 B
b11101 W
b11100 C
b11101 ?
b11101 T
b11101 V
b11100 :
b11100 D
b11100 R
1)
1+
#38500
0)
0+
#39000
b11110 6
b11110 B
b11110 W
b11101 C
b11110 ?
b11110 T
b11110 V
b11101 :
b11101 D
b11101 R
1)
1+
#39500
0)
0+
#40000
b11111 6
b11111 B
b11111 W
b11110 C
b11111 ?
b11111 T
b11111 V
b11110 :
b11110 D
b11110 R
1)
1+
#40500
0)
0+
#41000
b100000 6
b100000 B
b100000 W
b11111 C
b100000 ?
b100000 T
b100000 V
b11111 :
b11111 D
b11111 R
1)
1+
#41500
0)
0+
#42000
b100001 6
b100001 B
b100001 W
b100000 C
b100001 ?
b100001 T
b100001 V
b100000 :
b100000 D
b100000 R
1)
1+
#42500
0)
0+
#43000
b100010 6
b100010 B
b100010 W
b100001 C
b100010 ?
b100010 T
b100010 V
b100001 :
b100001 D
b100001 R
1)
1+
#43500
0)
0+
#44000
b100011 6
b100011 B
b100011 W
b100010 C
b100011 ?
b100011 T
b100011 V
b100010 :
b100010 D
b100010 R
1)
1+
#44500
0)
0+
#45000
b100100 6
b100100 B
b100100 W
b100011 C
b100100 ?
b100100 T
b100100 V
b100011 :
b100011 D
b100011 R
1)
1+
#45500
0)
0+
#46000
b100101 6
b100101 B
b100101 W
b100100 C
b100101 ?
b100101 T
b100101 V
b100100 :
b100100 D
b100100 R
1)
1+
#46500
0)
0+
#47000
b100110 6
b100110 B
b100110 W
b100101 C
b100110 ?
b100110 T
b100110 V
b100101 :
b100101 D
b100101 R
1)
1+
#47500
0)
0+
#48000
b100111 6
b100111 B
b100111 W
b100110 C
b100111 ?
b100111 T
b100111 V
b100110 :
b100110 D
b100110 R
1)
1+
#48500
0)
0+
#49000
b101000 6
b101000 B
b101000 W
b100111 C
b101000 ?
b101000 T
b101000 V
b100111 :
b100111 D
b100111 R
1)
1+
#49500
0)
0+
#50000
b101001 6
b101001 B
b101001 W
b101000 C
b101001 ?
b101001 T
b101001 V
b101000 :
b101000 D
b101000 R
1)
1+
#50500
0)
0+
#51000
b101010 6
b101010 B
b101010 W
b101001 C
b101010 ?
b101010 T
b101010 V
b101001 :
b101001 D
b101001 R
1)
1+
#51500
0)
0+
#52000
b101011 6
b101011 B
b101011 W
b101010 C
b101011 ?
b101011 T
b101011 V
b101010 :
b101010 D
b101010 R
1)
1+
#52500
0)
0+
#53000
b101100 6
b101100 B
b101100 W
b101011 C
b101100 ?
b101100 T
b101100 V
b101011 :
b101011 D
b101011 R
1)
1+
#53500
0)
0+
#54000
b101101 6
b101101 B
b101101 W
b101100 C
b101101 ?
b101101 T
b101101 V
b101100 :
b101100 D
b101100 R
1)
1+
#54500
0)
0+
#55000
b101110 6
b101110 B
b101110 W
b101101 C
b101110 ?
b101110 T
b101110 V
b101101 :
b101101 D
b101101 R
1)
1+
#55500
0)
0+
#56000
b101111 6
b101111 B
b101111 W
b101110 C
b101111 ?
b101111 T
b101111 V
b101110 :
b101110 D
b101110 R
1)
1+
#56500
0)
0+
#57000
b110000 6
b110000 B
b110000 W
b101111 C
b110000 ?
b110000 T
b110000 V
b101111 :
b101111 D
b101111 R
1)
1+
#57500
0)
0+
#58000
b110001 6
b110001 B
b110001 W
b110000 C
b110001 ?
b110001 T
b110001 V
b110000 :
b110000 D
b110000 R
1)
1+
#58500
0)
0+
#59000
b110010 6
b110010 B
b110010 W
b110001 C
b110010 ?
b110010 T
b110010 V
b110001 :
b110001 D
b110001 R
1)
1+
#59500
0)
0+
#60000
b110011 6
b110011 B
b110011 W
b110010 C
b110011 ?
b110011 T
b110011 V
b110010 :
b110010 D
b110010 R
1)
1+
#60500
0)
0+
#61000
b110100 6
b110100 B
b110100 W
b110011 C
b110100 ?
b110100 T
b110100 V
b110011 :
b110011 D
b110011 R
1)
1+
#61500
0)
0+
#62000
b110101 6
b110101 B
b110101 W
b110100 C
b110101 ?
b110101 T
b110101 V
b110100 :
b110100 D
b110100 R
1)
1+
#62500
0)
0+
#63000
b110110 6
b110110 B
b110110 W
b110101 C
b110110 ?
b110110 T
b110110 V
b110101 :
b110101 D
b110101 R
1)
1+
#63500
0)
0+
#64000
b110111 6
b110111 B
b110111 W
b110110 C
b110111 ?
b110111 T
b110111 V
b110110 :
b110110 D
b110110 R
1)
1+
#64500
0)
0+
#65000
b111000 6
b111000 B
b111000 W
b110111 C
b111000 ?
b111000 T
b111000 V
b110111 :
b110111 D
b110111 R
1)
1+
#65500
0)
0+
#66000
b111001 6
b111001 B
b111001 W
b111000 C
b111001 ?
b111001 T
b111001 V
b111000 :
b111000 D
b111000 R
1)
1+
#66500
0)
0+
#67000
b111010 6
b111010 B
b111010 W
b111001 C
b111010 ?
b111010 T
b111010 V
b111001 :
b111001 D
b111001 R
1)
1+
#67500
0)
0+
#68000
b111011 6
b111011 B
b111011 W
b111010 C
b111011 ?
b111011 T
b111011 V
b111010 :
b111010 D
b111010 R
1)
1+
#68500
0)
0+
#69000
b111100 6
b111100 B
b111100 W
b111011 C
b111100 ?
b111100 T
b111100 V
b111011 :
b111011 D
b111011 R
1)
1+
#69500
0)
0+
#70000
b111101 6
b111101 B
b111101 W
b111100 C
b111101 ?
b111101 T
b111101 V
b111100 :
b111100 D
b111100 R
1)
1+
#70500
0)
0+
#71000
b111110 6
b111110 B
b111110 W
b111101 C
b111110 ?
b111110 T
b111110 V
b111101 :
b111101 D
b111101 R
1)
1+
#71500
0)
0+
#72000
b111111 6
b111111 B
b111111 W
b111110 C
b111111 ?
b111111 T
b111111 V
b111110 :
b111110 D
b111110 R
1)
1+
#72500
0)
0+
#73000
b1000000 6
b1000000 B
b1000000 W
b111111 C
b1000000 ?
b1000000 T
b1000000 V
b111111 :
b111111 D
b111111 R
1)
1+
#73500
0)
0+
#74000
b1000001 6
b1000001 B
b1000001 W
b1000000 C
b1000001 ?
b1000001 T
b1000001 V
b1000000 :
b1000000 D
b1000000 R
1)
1+
#74500
0)
0+
#75000
b1000010 6
b1000010 B
b1000010 W
b1000001 C
b1000010 ?
b1000010 T
b1000010 V
b1000001 :
b1000001 D
b1000001 R
1)
1+
#75500
0)
0+
#76000
b1000011 6
b1000011 B
b1000011 W
b1000010 C
b1000011 ?
b1000011 T
b1000011 V
b1000010 :
b1000010 D
b1000010 R
1)
1+
#76500
0)
0+
#77000
b1000100 6
b1000100 B
b1000100 W
b1000011 C
b1000100 ?
b1000100 T
b1000100 V
b1000011 :
b1000011 D
b1000011 R
1)
1+
#77500
0)
0+
#78000
b1000101 6
b1000101 B
b1000101 W
b1000100 C
b1000101 ?
b1000101 T
b1000101 V
b1000100 :
b1000100 D
b1000100 R
1)
1+
#78500
0)
0+
#79000
b1000110 6
b1000110 B
b1000110 W
b1000101 C
b1000110 ?
b1000110 T
b1000110 V
b1000101 :
b1000101 D
b1000101 R
1)
1+
#79500
0)
0+
#80000
b1000111 6
b1000111 B
b1000111 W
b1000110 C
b1000111 ?
b1000111 T
b1000111 V
b1000110 :
b1000110 D
b1000110 R
1)
1+
